Data Visualization with R - 5 Data Viz and Regression in R
…
library(broom) contains three helpful functions for tidying the output of estimated models. library(broom) is extensible and has methods for many models (lm(), glm(), kmeans(), LDA()). We will demonstrate applications with lm():

augment() returns one row per observation in the estimation data and includes information like predicted values and residuals.

tidy() returns one row per coefficient and includes information like point estimates and standard errors.

glance() returns one row per model and includes information like \(R^2\).

8.1.1 augment()

augment() returns observation-level diagnostics like residuals and hat values.

augment(stopping_model)

# A tibble: 50 × 8
    dist speed .fitted .resid   .hat .sigma  .cooksd .std.resid
   <dbl> <dbl>   <dbl>  <dbl>  <dbl>  <dbl>    <dbl>      <dbl>
 1     2     4   -1.85   3.85 0.115    15.5 0.00459       0.266
 2    10     4   -1.85  11.8  0.115    15.4 0.0435        0.819
 3     4     7    9.95  -5.95 0.0715   15.5 0.00620      -0.401
 4    22     7    9.95  12.1  0.0715   15.4 0.0255        0.813
 5    16     8   13.9    2.12 0.0600   15.5 0.000645      0.142
 6    10     9   17.8   -7.81 0.0499   15.5 0.00713      -0.521
 7    18    10   21.7   -3.74 0.0413   15.5 0.00133      -0.249
 8    26    10   21.7    4.26 0.0413   15.5 0.00172       0.283
 9    34    10   21.7   12.3  0.0413   15.4 0.0143        0.814
10    17    11   25.7   -8.68 0.0341   15.5 0.00582      -0.574
# ℹ 40 more rows
…
Step 3: Visualize the \(R^2\) with a scatter plot with r_squared on the x axis and color on the y axis.

Step 4: Add scale_x_continuous(limits = c(0, 1)).

9 4. Create Data with library(modelr)

library(modelr) has many useful functions for modeling. It works with more types of models than just linear models from lm().

9.1 add_predictions()

add_predictions() adds predictions to a data set using an estimated model object.

add_predictions(data = diamonds, model = diamonds_model1)

# A tibble: 300 × 11
   carat cut       color clarity depth table price     x     y     z   pred
   <dbl> <chr>     <chr> <chr>   <dbl> <dbl> <int> <dbl> <dbl> <dbl>  <dbl>
 1  0.7  Very Good I     VVS1     62.9    58  2513  5.65  5.67  3.56  3070.
 2  1.52 Ideal     I     SI2      61.7    57  7582  7.38  7.41  4.56 10154.
 3  0.31 Ideal     H     SI1      61.3    55   421  4.35  4.39  2.68   198.
 4  0.71 Ideal     D     VS2      59.9    57  3540  5.8   5.83  3.48  3489.
 5  2.07 Ideal     I     SI2      62      55 16189  8.12  8.22  5.07 14680.
 6  1    Ideal     E     SI2      61.9    56  4760  6.43  6.4   3.97  5876.
 7  1.2  Ideal     G     SI1      61.2    56  7920  6.87  6.88  4.21  7521.
 8  0.52 Good      H     VS2      63.7    54  1385  5.12  5.09  3.25  1409.
 9  0.65 Very Good G     VS2      63.2    57  2009  5.54  5.47  3.48  2659.
10  0.49 Premium   F     SI2      62.2    59  1073  5.09  5.04  3.15  1392.
# ℹ 290 more rows

9.2 add_residuals()

add_residuals() adds residuals to a data set using an estimated model object.

add_residuals(data = diamonds, model = diamonds_model1)

# A tibble: 300 × 11
   carat cut       color clarity depth table price     x     y     z   resid
   <dbl> <chr>     <chr> <chr>   <dbl> <dbl> <int> <dbl> <dbl> <dbl>   <dbl>
 1  0.7  Very Good I     VVS1     62.9    58  2513  5.65  5.67  3.56  -557. 
 2  1.52 Ideal     I     SI2      61.7    57  7582  7.38  7.41  4.56 -2572. 
 3  0.31 Ideal     H     SI1      61.3    55   421  4.35  4.39  2.68   223. 
 4  0.71 Ideal     D     VS2      59.9    57  3540  5.8   5.83  3.48    50.6
 5  2.07 Ideal     I     SI2      62      55 16189  8.12  8.22  5.07  1509. 
 6  1    Ideal     E     SI2      61.9    56  4760  6.43  6.4   3.97 -1116. 
 7  1.2  Ideal     G     SI1      61.2    56  7920  6.87  6.88  4.21   399. 
 8  0.52 Good      H     VS2      63.7    54  1385  5.12  5.09  3.25   -23.9
 9  0.65 Very Good G     VS2      63.2    57  2009  5.54  5.47  3.48  -650. 
10  0.49 Premium   F     SI2      62.2    59  1073  5.09  5.04  3.15  -319. 
# ℹ 290 more rows

9.3 data_grid()

data_grid() creates an evenly-spaced grid of points using the range of observed predictors in a data set. This is useful for visualization and is really, really useful for understanding generalized linear models. seq_range() can be used with data_grid() to add a finer grid of values.

data_grid(data = diamonds, carat, cut) %>%
  add_predictions(diamonds_model1)

# A tibble: 465 × 3
   carat cut         pred
   <dbl> <chr>      <dbl>
 1  0.2  Fair      -2010.
 2  0.2  Good      -1224.
 3  0.2  Ideal      -707.
 4  0.2  Premium    -995.
 5  0.2  Very Good -1044.
 6  0.23 Fair      -1763.
 7  0.23 Good       -977.
 8  0.23 Ideal      -460.
 9  0.23 Premium    -748.
10  0.23 Very Good  -797.
# ℹ 455 more rows
…
