Grammar of Graphics
…
ggplot(data = storms) + 
  geom_point(mapping = aes(x = pressure, y = wind))

Step 2: Add a comment above the ggplot2 code that describes the plot we created.

Step 3: As we progress, add comments below the data visualization code that describe the argument or function that corresponds to each of the first three components of the grammar of graphics.

1 Data are the values represented in the visualization.

ggplot(data = ) or data %>% ggplot()

storms %>%
  select(name, year, category, lat, long, wind, pressure)

# A tibble: 19,537 × 7
   name   year category   lat  long  wind pressure
   <chr> <dbl>    <dbl> <dbl> <dbl> <int>    <int>
 1 Amy    1975       NA  27.5 -79      25     1013
 2 Amy    1975       NA  28.5 -79      25     1013
 3 Amy    1975       NA  29.5 -79      25     1013
 4 Amy    1975       NA  30.5 -79      25     1013
 5 Amy    1975       NA  31.5 -78.8    25     1012
 6 Amy    1975       NA  32.4 -78.7    25     1012
 7 Amy    1975       NA  33.3 -78      25     1011
 8 Amy    1975       NA  34   -77      30     1006
 9 Amy    1975       NA  34.4 -75.8    35     1004
10 Amy    1975       NA  34   -74.8    40     1002
# ℹ 19,527 more rows
…
