Time Series and Annotations in R
…
The inverse of pivot_longer() is pivot_wider().

rates

# A tibble: 886 × 3
   DATE       UNRATE U6RATE
   <date>      <dbl>  <dbl>
 1 1948-01-01    3.4     NA
 2 1948-02-01    3.8     NA
 3 1948-03-01    4       NA
 4 1948-04-01    3.9     NA
 5 1948-05-01    3.5     NA
 6 1948-06-01    3.6     NA
 7 1948-07-01    3.6     NA
 8 1948-08-01    3.9     NA
 9 1948-09-01    3.8     NA
10 1948-10-01    3.7     NA
# … with 876 more rows

rates %>%
  pivot_longer(
    cols = -DATE, 
    names_to = "series", 
    values_to = "rate"
  ) %>%
  pivot_wider(
    names_from = series, 
    values_from = rate
  )

# A tibble: 886 × 3
   DATE       UNRATE U6RATE
   <date>      <dbl>  <dbl>
 1 1948-01-01    3.4     NA
 2 1948-02-01    3.8     NA
 3 1948-03-01    4       NA
 4 1948-04-01    3.9     NA
 5 1948-05-01    3.5     NA
 6 1948-06-01    3.6     NA
 7 1948-07-01    3.6     NA
 8 1948-08-01    3.9     NA
 9 1948-09-01    3.8     NA
10 1948-10-01    3.7     NA
# … with 876 more rows
…
